AbabeelCore5StagePipelined/test_run_dir/examples/Top/Top.vcd
$version Generated by VerilatedVcd $end
$date Sun Mar  1 18:35:12 2020
 $end
$timescale   1ns $end

 $scope module TOP $end
  $var wire  1 "D clock $end
  $var wire 32 "F io_main_RegOut [31:0] $end
  $var wire  1 "E reset $end
  $scope module Top $end
   $var wire  5 t BFU_io_exeMemRd [4:0] $end
   $var wire  1 u BFU_io_exeMemRegWrite $end
   $var wire  2 M BFU_io_fwdA [1:0] $end
   $var wire  2 N BFU_io_fwdB [1:0] $end
   $var wire  5 o BFU_io_idExeRd [4:0] $end
   $var wire  1 q BFU_io_idExeRegWrite $end
   $var wire  1 i BFU_io_memMemRead $end
   $var wire  5 [ BFU_io_memWrRd [4:0] $end
   $var wire  1 X BFU_io_memWrRegWrite $end
   $var wire  5 Y BFU_io_rs1 [4:0] $end
   $var wire  5 Z BFU_io_rs2 [4:0] $end
   $var wire  1 L BU_io_branch $end
   $var wire  1 $ BU_io_ctrlBranch $end
   $var wire  3 ` BU_io_func3 [2:0] $end
   $var wire 32 J BU_io_rs1 [31:0] $end
   $var wire 32 K BU_io_rs2 [31:0] $end
   $var wire  1 u JFU_io_exeMemMemWrite $end
   $var wire  5 t JFU_io_exeMemRd [4:0] $end
   $var wire  2 O JFU_io_fwd [1:0] $end
   $var wire  1 q JFU_io_idExeMemWrite $end
   $var wire  5 o JFU_io_idExeRd [4:0] $end
   $var wire  1 X JFU_io_memWrMemWrite $end
   $var wire  5 [ JFU_io_memWrRd [4:0] $end
   $var wire  5 Y JFU_io_rd [4:0] $end
   $var wire  1 "D Pc_clock $end
   $var wire 32 6 Pc_io_input [31:0] $end
   $var wire 32 d Pc_io_pc [31:0] $end
   $var wire 32 c Pc_io_pc4 [31:0] $end
   $var wire  1 "E Pc_reset $end
   $var wire  1 u SFU_io_exeMemMemWrite $end
   $var wire  5 t SFU_io_exeMemRd [4:0] $end
   $var wire  2 I SFU_io_fwd [1:0] $end
   $var wire  1 q SFU_io_idExeMemWrite $end
   $var wire  5 o SFU_io_idExeRd [4:0] $end
   $var wire  1 X SFU_io_memWrMemWrite $end
   $var wire  5 [ SFU_io_memWrRd [4:0] $end
   $var wire  5 Z SFU_io_rd [4:0] $end
   $var wire  1 H SU_io_hazard $end
   $var wire  1 l SU_io_idExeMemRead $end
   $var wire  5 o SU_io_idExeRd [4:0] $end
   $var wire  5 Y SU_io_ifIdRs1 [4:0] $end
   $var wire  5 Z SU_io_ifIdRs2 [4:0] $end
   $var wire  5 2 aluControl_io_AluC [4:0] $end
   $var wire  3 ' aluControl_io_AluOp [2:0] $end
   $var wire  3 ` aluControl_io_Func3 [2:0] $end
   $var wire  1 a aluControl_io_Func7 $end
   $var wire  5 b alu_io_AluControl [4:0] $end
   $var wire 32 3 alu_io_a [31:0] $end
   $var wire 32 4 alu_io_b [31:0] $end
   $var wire 32 5 alu_io_output [31:0] $end
   $var wire  1 "D clock $end
   $var wire  3 ' control_io_AluOp [2:0] $end
   $var wire  1 $ control_io_Branch $end
   $var wire  2 * control_io_ExtendSel [1:0] $end
   $var wire  1 % control_io_MemRead $end
   $var wire  1 % control_io_MemToReg $end
   $var wire  1 # control_io_MemWrite $end
   $var wire  2 + control_io_NextPcSel [1:0] $end
   $var wire  7 W control_io_OpCode [6:0] $end
   $var wire  2 ( control_io_Operand_aSel [1:0] $end
   $var wire  1 ) control_io_Operand_bSel $end
   $var wire  1 & control_io_RegWrite $end
   $var wire  1 "D dataMem_clock $end
   $var wire 32 f dataMem_io_Address [31:0] $end
   $var wire 32 g dataMem_io_DataIn [31:0] $end
   $var wire 32 : dataMem_io_DataOut [31:0] $end
   $var wire  1 i dataMem_io_ld $end
   $var wire  1 h dataMem_io_str $end
   $var wire  1 "D exeMem_clock $end
   $var wire 32 5 exeMem_io_aluOutput_in [31:0] $end
   $var wire 32 f exeMem_io_aluOutput_out [31:0] $end
   $var wire  1 l exeMem_io_memRead_in $end
   $var wire  1 i exeMem_io_memRead_out $end
   $var wire  1 l exeMem_io_memToReg_in $end
   $var wire  1 i exeMem_io_memToReg_out $end
   $var wire  1 k exeMem_io_memWrite_in $end
   $var wire  1 h exeMem_io_memWrite_out $end
   $var wire  5 o exeMem_io_rd_in [4:0] $end
   $var wire  5 t exeMem_io_rd_out [4:0] $end
   $var wire  1 q exeMem_io_regWrite_in $end
   $var wire  1 u exeMem_io_regWrite_out $end
   $var wire 32 p exeMem_io_strData_in [31:0] $end
   $var wire 32 g exeMem_io_strData_out [31:0] $end
   $var wire  1 "E exeMem_reset $end
   $var wire  5 t hdu_io_exRd [4:0] $end
   $var wire  1 u hdu_io_exRegWrite $end
   $var wire  2 F hdu_io_forwardA [1:0] $end
   $var wire  2 G hdu_io_forwardB [1:0] $end
   $var wire  5 r hdu_io_idRs1 [4:0] $end
   $var wire  5 s hdu_io_idRs2 [4:0] $end
   $var wire  5 [ hdu_io_memRd [4:0] $end
   $var wire  1 X hdu_io_memRegWrite $end
   $var wire  1 "D idExe_clock $end
   $var wire  5 D idExe_io_aluCtrl_in [4:0] $end
   $var wire  5 b idExe_io_aluCtrl_out [4:0] $end
   $var wire  1 ? idExe_io_memRead_in $end
   $var wire  1 l idExe_io_memRead_out $end
   $var wire  1 ? idExe_io_memToReg_in $end
   $var wire  1 l idExe_io_memToReg_out $end
   $var wire  1 > idExe_io_memWrite_in $end
   $var wire  1 k idExe_io_memWrite_out $end
   $var wire 32 @ idExe_io_operandA_in [31:0] $end
   $var wire 32 m idExe_io_operandA_out [31:0] $end
   $var wire 32 A idExe_io_operandB_in [31:0] $end
   $var wire 32 n idExe_io_operandB_out [31:0] $end
   $var wire  5 B idExe_io_rd_in [4:0] $end
   $var wire  5 o idExe_io_rd_out [4:0] $end
   $var wire  1 E idExe_io_regWrite_in $end
   $var wire  1 q idExe_io_regWrite_out $end
   $var wire  5 Y idExe_io_rs1Ins_in [4:0] $end
   $var wire  5 r idExe_io_rs1Ins_out [4:0] $end
   $var wire  5 Z idExe_io_rs2Ins_in [4:0] $end
   $var wire  5 s idExe_io_rs2Ins_out [4:0] $end
   $var wire 32 C idExe_io_strData_in [31:0] $end
   $var wire 32 p idExe_io_strData_out [31:0] $end
   $var wire  1 "E idExe_reset $end
   $var wire  1 "D ifId_clock $end
   $var wire 32 = ifId_io_ins_in [31:0] $end
   $var wire 32 \ ifId_io_ins_out [31:0] $end
   $var wire 32 < ifId_io_pc4_in [31:0] $end
   $var wire 32 j ifId_io_pc4_out [31:0] $end
   $var wire 32 ; ifId_io_pc_in [31:0] $end
   $var wire 32 ] ifId_io_pc_out [31:0] $end
   $var wire  1 "E ifId_reset $end
   $var wire 32 1 immGen_io_I_Imm [31:0] $end
   $var wire 32 ] immGen_io_PC [31:0] $end
   $var wire 32 / immGen_io_SB_Imm [31:0] $end
   $var wire 32 ^ immGen_io_S_Imm [31:0] $end
   $var wire 32 0 immGen_io_UJ_Imm [31:0] $end
   $var wire 32 _ immGen_io_U_Imm [31:0] $end
   $var wire 32 \ immGen_io_ins [31:0] $end
   $var wire  1 "D insMem_clock $end
   $var wire 32 7 insMem_io_rData [31:0] $end
   $var wire 10 e insMem_io_wrAdder [9:0] $end
   $var wire 32 "F io_main_RegOut [31:0] $end
   $var wire 32 8 jalr_io_a [31:0] $end
   $var wire 32 1 jalr_io_b [31:0] $end
   $var wire 32 9 jalr_io_output [31:0] $end
   $var wire  1 "D memWr_clock $end
   $var wire 32 f memWr_io_aluOutput_in [31:0] $end
   $var wire 32 x memWr_io_aluOutput_out [31:0] $end
   $var wire 32 : memWr_io_dataOut_in [31:0] $end
   $var wire 32 w memWr_io_dataOut_out [31:0] $end
   $var wire  1 i memWr_io_memToReg_in $end
   $var wire  1 v memWr_io_memToReg_out $end
   $var wire  5 t memWr_io_rd_in [4:0] $end
   $var wire  5 [ memWr_io_rd_out [4:0] $end
   $var wire  1 u memWr_io_regWrite_in $end
   $var wire  1 X memWr_io_regWrite_out $end
   $var wire  1 "E memWr_reset $end
   $var wire  1 "D regFile_clock $end
   $var wire  1 X regFile_io_RegWrite $end
   $var wire 32 , regFile_io_WriteData [31:0] $end
   $var wire  5 [ regFile_io_rd [4:0] $end
   $var wire 32 - regFile_io_rd1 [31:0] $end
   $var wire 32 . regFile_io_rd2 [31:0] $end
   $var wire  5 Y regFile_io_rs1 [4:0] $end
   $var wire  5 Z regFile_io_rs2 [4:0] $end
   $var wire  1 "E reset $end
   $scope module BFU $end
    $var wire  5 t io_exeMemRd [4:0] $end
    $var wire  1 u io_exeMemRegWrite $end
    $var wire  2 M io_fwdA [1:0] $end
    $var wire  2 N io_fwdB [1:0] $end
    $var wire  5 o io_idExeRd [4:0] $end
    $var wire  1 q io_idExeRegWrite $end
    $var wire  1 i io_memMemRead $end
    $var wire  5 [ io_memWrRd [4:0] $end
    $var wire  1 X io_memWrRegWrite $end
    $var wire  5 Y io_rs1 [4:0] $end
    $var wire  5 Z io_rs2 [4:0] $end
   $upscope $end
   $scope module BU $end
    $var wire  1 L io_branch $end
    $var wire  1 $ io_ctrlBranch $end
    $var wire  3 ` io_func3 [2:0] $end
    $var wire 32 J io_rs1 [31:0] $end
    $var wire 32 K io_rs2 [31:0] $end
   $upscope $end
   $scope module JFU $end
    $var wire  1 u io_exeMemMemWrite $end
    $var wire  5 t io_exeMemRd [4:0] $end
    $var wire  2 O io_fwd [1:0] $end
    $var wire  1 q io_idExeMemWrite $end
    $var wire  5 o io_idExeRd [4:0] $end
    $var wire  1 X io_memWrMemWrite $end
    $var wire  5 [ io_memWrRd [4:0] $end
    $var wire  5 Y io_rd [4:0] $end
   $upscope $end
   $scope module Pc $end
    $var wire  1 "D clock $end
    $var wire 32 6 io_input [31:0] $end
    $var wire 32 d io_pc [31:0] $end
    $var wire 32 c io_pc4 [31:0] $end
    $var wire 32 d reg$ [31:0] $end
    $var wire  1 "E reset $end
   $upscope $end
   $scope module SFU $end
    $var wire  1 u io_exeMemMemWrite $end
    $var wire  5 t io_exeMemRd [4:0] $end
    $var wire  2 I io_fwd [1:0] $end
    $var wire  1 q io_idExeMemWrite $end
    $var wire  5 o io_idExeRd [4:0] $end
    $var wire  1 X io_memWrMemWrite $end
    $var wire  5 [ io_memWrRd [4:0] $end
    $var wire  5 Z io_rd [4:0] $end
   $upscope $end
   $scope module SU $end
    $var wire  1 H io_hazard $end
    $var wire  1 l io_idExeMemRead $end
    $var wire  5 o io_idExeRd [4:0] $end
    $var wire  5 Y io_ifIdRs1 [4:0] $end
    $var wire  5 Z io_ifIdRs2 [4:0] $end
   $upscope $end
   $scope module alu $end
    $var wire  5 b io_AluControl [4:0] $end
    $var wire 32 3 io_a [31:0] $end
    $var wire 32 4 io_b [31:0] $end
    $var wire 32 5 io_output [31:0] $end
   $upscope $end
   $scope module aluControl $end
    $var wire  5 2 io_AluC [4:0] $end
    $var wire  3 ' io_AluOp [2:0] $end
    $var wire  3 ` io_Func3 [2:0] $end
    $var wire  1 a io_Func7 $end
   $upscope $end
   $scope module control $end
    $var wire  3 ' CD_io_AluOp [2:0] $end
    $var wire  1 $ CD_io_Branch $end
    $var wire  2 * CD_io_ExtendSel [1:0] $end
    $var wire  1 S CD_io_IType $end
    $var wire  1 U CD_io_Jal $end
    $var wire  1 T CD_io_Jalr $end
    $var wire  1 P CD_io_Load $end
    $var wire  1 V CD_io_Lui $end
    $var wire  1 % CD_io_MemRead $end
    $var wire  1 % CD_io_MemToReg $end
    $var wire  1 # CD_io_MemWrite $end
    $var wire  2 + CD_io_NextPcSel [1:0] $end
    $var wire  2 ( CD_io_Operand_aSel [1:0] $end
    $var wire  1 ) CD_io_Operand_bSel $end
    $var wire  1 y CD_io_RType $end
    $var wire  1 & CD_io_RegWrite $end
    $var wire  1 R CD_io_SBType $end
    $var wire  1 Q CD_io_Store $end
    $var wire  1 R ID_io_Branch $end
    $var wire  1 S ID_io_IType $end
    $var wire  1 U ID_io_Jal $end
    $var wire  1 T ID_io_Jalr $end
    $var wire  1 P ID_io_Load $end
    $var wire  1 V ID_io_Lui $end
    $var wire  1 y ID_io_RType $end
    $var wire  1 Q ID_io_Store $end
    $var wire  7 W ID_io_opCode [6:0] $end
    $var wire  3 ' io_AluOp [2:0] $end
    $var wire  1 $ io_Branch $end
    $var wire  2 * io_ExtendSel [1:0] $end
    $var wire  1 % io_MemRead $end
    $var wire  1 % io_MemToReg $end
    $var wire  1 # io_MemWrite $end
    $var wire  2 + io_NextPcSel [1:0] $end
    $var wire  7 W io_OpCode [6:0] $end
    $var wire  2 ( io_Operand_aSel [1:0] $end
    $var wire  1 ) io_Operand_bSel $end
    $var wire  1 & io_RegWrite $end
    $scope module CD $end
     $var wire  3 ' io_AluOp [2:0] $end
     $var wire  1 $ io_Branch $end
     $var wire  2 * io_ExtendSel [1:0] $end
     $var wire  1 S io_IType $end
     $var wire  1 U io_Jal $end
     $var wire  1 T io_Jalr $end
     $var wire  1 P io_Load $end
     $var wire  1 V io_Lui $end
     $var wire  1 % io_MemRead $end
     $var wire  1 % io_MemToReg $end
     $var wire  1 # io_MemWrite $end
     $var wire  2 + io_NextPcSel [1:0] $end
     $var wire  2 ( io_Operand_aSel [1:0] $end
     $var wire  1 ) io_Operand_bSel $end
     $var wire  1 y io_RType $end
     $var wire  1 & io_RegWrite $end
     $var wire  1 R io_SBType $end
     $var wire  1 Q io_Store $end
    $upscope $end
    $scope module ID $end
     $var wire  1 R io_Branch $end
     $var wire  1 S io_IType $end
     $var wire  1 U io_Jal $end
     $var wire  1 T io_Jalr $end
     $var wire  1 P io_Load $end
     $var wire  1 V io_Lui $end
     $var wire  1 y io_RType $end
     $var wire  1 Q io_Store $end
     $var wire  7 W io_opCode [6:0] $end
    $upscope $end
   $upscope $end
   $scope module dataMem $end
    $var wire  1 "D clock $end
    $var wire 32 f io_Address [31:0] $end
    $var wire 32 g io_DataIn [31:0] $end
    $var wire 32 : io_DataOut [31:0] $end
    $var wire  1 i io_ld $end
    $var wire  1 h io_str $end
    $var wire 10 "C mem__T_23_addr [9:0] $end
    $var wire 32 : mem__T_23_data [31:0] $end
    $var wire 10 "C mem__T_27_addr [9:0] $end
    $var wire 32 g mem__T_27_data [31:0] $end
    $var wire  1 h mem__T_27_en $end
    $var wire  1 "G mem__T_27_mask $end
   $upscope $end
   $scope module exeMem $end
    $var wire  1 "D clock $end
    $var wire 32 5 io_aluOutput_in [31:0] $end
    $var wire 32 f io_aluOutput_out [31:0] $end
    $var wire  1 l io_memRead_in $end
    $var wire  1 i io_memRead_out $end
    $var wire  1 l io_memToReg_in $end
    $var wire  1 i io_memToReg_out $end
    $var wire  1 k io_memWrite_in $end
    $var wire  1 h io_memWrite_out $end
    $var wire  5 o io_rd_in [4:0] $end
    $var wire  5 t io_rd_out [4:0] $end
    $var wire  1 q io_regWrite_in $end
    $var wire  1 u io_regWrite_out $end
    $var wire 32 p io_strData_in [31:0] $end
    $var wire 32 g io_strData_out [31:0] $end
    $var wire 32 f reg_aluOutput [31:0] $end
    $var wire  1 i reg_memRead $end
    $var wire  1 i reg_memToReg $end
    $var wire  1 h reg_memWrite $end
    $var wire  5 t reg_rd [4:0] $end
    $var wire  1 u reg_regWrite $end
    $var wire 32 g reg_strData [31:0] $end
    $var wire  1 "E reset $end
   $upscope $end
   $scope module hdu $end
    $var wire  5 t io_exRd [4:0] $end
    $var wire  1 u io_exRegWrite $end
    $var wire  2 F io_forwardA [1:0] $end
    $var wire  2 G io_forwardB [1:0] $end
    $var wire  5 r io_idRs1 [4:0] $end
    $var wire  5 s io_idRs2 [4:0] $end
    $var wire  5 [ io_memRd [4:0] $end
    $var wire  1 X io_memRegWrite $end
   $upscope $end
   $scope module idExe $end
    $var wire  1 "D clock $end
    $var wire  5 D io_aluCtrl_in [4:0] $end
    $var wire  5 b io_aluCtrl_out [4:0] $end
    $var wire  1 ? io_memRead_in $end
    $var wire  1 l io_memRead_out $end
    $var wire  1 ? io_memToReg_in $end
    $var wire  1 l io_memToReg_out $end
    $var wire  1 > io_memWrite_in $end
    $var wire  1 k io_memWrite_out $end
    $var wire 32 @ io_operandA_in [31:0] $end
    $var wire 32 m io_operandA_out [31:0] $end
    $var wire 32 A io_operandB_in [31:0] $end
    $var wire 32 n io_operandB_out [31:0] $end
    $var wire  5 B io_rd_in [4:0] $end
    $var wire  5 o io_rd_out [4:0] $end
    $var wire  1 E io_regWrite_in $end
    $var wire  1 q io_regWrite_out $end
    $var wire  5 Y io_rs1Ins_in [4:0] $end
    $var wire  5 r io_rs1Ins_out [4:0] $end
    $var wire  5 Z io_rs2Ins_in [4:0] $end
    $var wire  5 s io_rs2Ins_out [4:0] $end
    $var wire 32 C io_strData_in [31:0] $end
    $var wire 32 p io_strData_out [31:0] $end
    $var wire  5 b reg_aluCtrl [4:0] $end
    $var wire  1 l reg_memRead $end
    $var wire  1 l reg_memToReg $end
    $var wire  1 k reg_memWrite $end
    $var wire 32 m reg_operandA [31:0] $end
    $var wire 32 n reg_operandB [31:0] $end
    $var wire  5 o reg_rd [4:0] $end
    $var wire  1 q reg_regWrite $end
    $var wire  5 r reg_rs1Ins [4:0] $end
    $var wire  5 s reg_rs2Ins [4:0] $end
    $var wire 32 p reg_strData [31:0] $end
    $var wire  1 "E reset $end
   $upscope $end
   $scope module ifId $end
    $var wire  1 "D clock $end
    $var wire 32 = io_ins_in [31:0] $end
    $var wire 32 \ io_ins_out [31:0] $end
    $var wire 32 < io_pc4_in [31:0] $end
    $var wire 32 j io_pc4_out [31:0] $end
    $var wire 32 ; io_pc_in [31:0] $end
    $var wire 32 ] io_pc_out [31:0] $end
    $var wire 32 \ reg_ins [31:0] $end
    $var wire 32 ] reg_pc [31:0] $end
    $var wire 32 j reg_pc4 [31:0] $end
    $var wire  1 "E reset $end
   $upscope $end
   $scope module immGen $end
    $var wire  4 "= imm11 [3:0] $end
    $var wire  8 "> imm19 [7:0] $end
    $var wire  1 "? imm20 $end
    $var wire  4 "@ imm24 [3:0] $end
    $var wire  6 "A imm30 [5:0] $end
    $var wire  1 "B imm31 $end
    $var wire  1 "< imm7 $end
    $var wire 32 1 io_I_Imm [31:0] $end
    $var wire 32 ] io_PC [31:0] $end
    $var wire 32 / io_SB_Imm [31:0] $end
    $var wire 32 ^ io_S_Imm [31:0] $end
    $var wire 32 0 io_UJ_Imm [31:0] $end
    $var wire 32 _ io_U_Imm [31:0] $end
    $var wire 32 \ io_ins [31:0] $end
   $upscope $end
   $scope module insMem $end
    $var wire  1 "D clock $end
    $var wire 32 7 io_rData [31:0] $end
    $var wire 10 e io_wrAdder [9:0] $end
    $var wire 10 e mem__T_11_addr [9:0] $end
    $var wire 32 7 mem__T_11_data [31:0] $end
    $scope module BindsTo_0_InsMem_Inst $end
     $var wire  1 "D clock $end
     $var wire 32 7 io_rData [31:0] $end
     $var wire 10 e io_wrAdder [9:0] $end
    $upscope $end
   $upscope $end
   $scope module jalr $end
    $var wire 32 8 io_a [31:0] $end
    $var wire 32 1 io_b [31:0] $end
    $var wire 32 9 io_output [31:0] $end
   $upscope $end
   $scope module memWr $end
    $var wire  1 "D clock $end
    $var wire 32 f io_aluOutput_in [31:0] $end
    $var wire 32 x io_aluOutput_out [31:0] $end
    $var wire 32 : io_dataOut_in [31:0] $end
    $var wire 32 w io_dataOut_out [31:0] $end
    $var wire  1 i io_memToReg_in $end
    $var wire  1 v io_memToReg_out $end
    $var wire  5 t io_rd_in [4:0] $end
    $var wire  5 [ io_rd_out [4:0] $end
    $var wire  1 u io_regWrite_in $end
    $var wire  1 X io_regWrite_out $end
    $var wire 32 x reg_aluOutput [31:0] $end
    $var wire 32 w reg_dataOut [31:0] $end
    $var wire  1 v reg_memToReg $end
    $var wire  5 [ reg_rd [4:0] $end
    $var wire  1 X reg_regWrite $end
    $var wire  1 "E reset $end
   $upscope $end
   $scope module regFile $end
    $var wire  1 "D clock $end
    $var wire  1 X io_RegWrite $end
    $var wire 32 , io_WriteData [31:0] $end
    $var wire  5 [ io_rd [4:0] $end
    $var wire 32 - io_rd1 [31:0] $end
    $var wire 32 . io_rd2 [31:0] $end
    $var wire  5 Y io_rs1 [4:0] $end
    $var wire  5 Z io_rs2 [4:0] $end
    $var wire 32 z registers_0 [31:0] $end
    $var wire 32 { registers_1 [31:0] $end
    $var wire 32 "& registers_10 [31:0] $end
    $var wire 32 "' registers_11 [31:0] $end
    $var wire 32 "( registers_12 [31:0] $end
    $var wire 32 ") registers_13 [31:0] $end
    $var wire 32 "* registers_14 [31:0] $end
    $var wire 32 "+ registers_15 [31:0] $end
    $var wire 32 ", registers_16 [31:0] $end
    $var wire 32 "- registers_17 [31:0] $end
    $var wire 32 ". registers_18 [31:0] $end
    $var wire 32 "/ registers_19 [31:0] $end
    $var wire 32 | registers_2 [31:0] $end
    $var wire 32 "0 registers_20 [31:0] $end
    $var wire 32 "1 registers_21 [31:0] $end
    $var wire 32 "2 registers_22 [31:0] $end
    $var wire 32 "3 registers_23 [31:0] $end
    $var wire 32 "4 registers_24 [31:0] $end
    $var wire 32 "5 registers_25 [31:0] $end
    $var wire 32 "6 registers_26 [31:0] $end
    $var wire 32 "7 registers_27 [31:0] $end
    $var wire 32 "8 registers_28 [31:0] $end
    $var wire 32 "9 registers_29 [31:0] $end
    $var wire 32 } registers_3 [31:0] $end
    $var wire 32 ": registers_30 [31:0] $end
    $var wire 32 "; registers_31 [31:0] $end
    $var wire 32 ~ registers_4 [31:0] $end
    $var wire 32 "! registers_5 [31:0] $end
    $var wire 32 "" registers_6 [31:0] $end
    $var wire 32 "# registers_7 [31:0] $end
    $var wire 32 "$ registers_8 [31:0] $end
    $var wire 32 "% registers_9 [31:0] $end
   $upscope $end
  $upscope $end
 $upscope $end
$enddefinitions $end


#0
0#
0$
0%
0&
b000 '
b00 (
0)
b00 *
b00 +
b00000000000000000000000000000000 ,
b00000000000000000000000000000000 -
b00000000000000000000000000000000 .
b00000000000000000000000000000000 /
b00000000000000000000000000000000 0
b00000000000000000000000000000000 1
b00000 2
b00000000000000000000000000000000 3
b00000000000000000000000000000000 4
b00000000000000000000000000000000 5
b00000000000000000000000000000100 6
b11111100000000010000000100010011 7
b00000000000000000000000000000000 8
b00000000000000000000000000000000 9
b00000000000000000000000000000000 :
b00000000000000000000000000000000 ;
b00000000000000000000000000000100 <
b11111100000000010000000100010011 =
0>
0?
b00000000000000000000000000000000 @
b00000000000000000000000000000000 A
b00000 B
b00000000000000000000000000000000 C
b00000 D
0E
b00 F
b00 G
0H
b00 I
b00000000000000000000000000000000 J
b00000000000000000000000000000000 K
0L
b00 M
b00 N
b00 O
0P
0Q
0R
0S
0T
0U
0V
b0000000 W
0X
b00000 Y
b00000 Z
b00000 [
b00000000000000000000000000000000 \
b00000000000000000000000000000000 ]
b00000000000000000000000000000000 ^
b00000000000000000000000000000000 _
b000 `
0a
b00000 b
b00000000000000000000000000000100 c
b00000000000000000000000000000000 d
b0000000000 e
b00000000000000000000000000000000 f
b00000000000000000000000000000000 g
0h
0i
b00000000000000000000000000000000 j
0k
0l
b00000000000000000000000000000000 m
b00000000000000000000000000000000 n
b00000 o
b00000000000000000000000000000000 p
0q
b00000 r
b00000 s
b00000 t
0u
0v
b00000000000000000000000000000000 w
b00000000000000000000000000000000 x
0y
b00000000000000000000000000000000 z
b00000000000000000000000000000000 {
b00000000000000000000000000000000 |
b00000000000000000000000000000000 }
b00000000000000000000000000000000 ~
b00000000000000000000000000000000 "!
b00000000000000000000000000000000 ""
b00000000000000000000000000000000 "#
b00000000000000000000000000000000 "$
b00000000000000000000000000000000 "%
b00000000000000000000000000000000 "&
b00000000000000000000000000000000 "'
b00000000000000000000000000000000 "(
b00000000000000000000000000000000 ")
b00000000000000000000000000000000 "*
b00000000000000000000000000000000 "+
b00000000000000000000000000000000 ",
b00000000000000000000000000000000 "-
b00000000000000000000000000000000 ".
b00000000000000000000000000000000 "/
b00000000000000000000000000000000 "0
b00000000000000000000000000000000 "1
b00000000000000000000000000000000 "2
b00000000000000000000000000000000 "3
b00000000000000000000000000000000 "4
b00000000000000000000000000000000 "5
b00000000000000000000000000000000 "6
b00000000000000000000000000000000 "7
b00000000000000000000000000000000 "8
b00000000000000000000000000000000 "9
b00000000000000000000000000000000 ":
b00000000000000000000000000000000 ";
0"<
b0000 "=
b00000000 ">
0"?
b0000 "@
b000000 "A
0"B
b0000000000 "C
0"D
1"E
b00000000000000000000000000000000 "F
1"G
#1
b00000000000000000000001000000000 |
1"D
#2
0"D
#3
1"D
#4
0"D
#5
1"D
#6
0"D
#7
1"D
#8
0"D
#9
1"D
#10
0"D
0"E
#11
1&
b001 '
1)
b00000000000000000000001000000000 -
b11111111111111111111011111000010 /
b11111111111100010000011111000000 0
b11111111111111111111111111000000 1
b00000000000000000000000000001000 6
b00000010100000010010111000100011 7
b00000000000000000000001000000000 8
b00000000000000000000000111000000 9
b00000000000000000000000000000100 ;
b00000000000000000000000000001000 <
b00000010100000010010111000100011 =
b00000000000000000000001000000000 @
b11111111111111111111111111000000 A
b00010 B
1E
b00000000000000000000001000000000 J
1S
b0010011 W
b00010 Y
b11111100000000010000000100010011 \
b11111111111111111111111111000010 ^
b11111100000000010000000000000000 _
1a
b00000000000000000000000000001000 c
b00000000000000000000000000000100 d
b0000000001 e
b00000000000000000000000000000100 j
b0001 "=
b00010000 ">
b111110 "A
1"B
1"D
#12
0"D
#13
1#
0&
b101 '
b10 *
b00000000000000000000000001000000 /
b00000000000000010010000000101100 0
b00000000000000000000000000101000 1
b00000000000000000000001000000000 3
b11111111111111111111111111000000 4
b00000000000000000000000111000000 5
b00000000000000000000000000001100 6
b00000100000000010000010000010011 7
b00000000000000000000000111000000 8
b00000000000000000000000111101000 9
b00000000000000000000000000001000 ;
b00000000000000000000000000001100 <
b00000100000000010000010000010011 =
1>
b00000000000000000000000000111100 A
b11100 B
0E
b00000000000000000000000111000000 J
b01 M
b01 O
1Q
0S
b0100011 W
b01000 Z
b00000010100000010010111000100011 \
b00000000000000000000000000000100 ]
b00000000000000000000000000111100 ^
b00000010100000010010000000000000 _
b010 `
0a
b00000000000000000000000000001100 c
b00000000000000000000000000001000 d
b0000000010 e
b00000000000000000000000000001000 j
b00000000000000000000001000000000 m
b11111111111111111111111111000000 n
b00010 o
1q
b00010 r
b1110 "=
b00010010 ">
b0100 "@
b000001 "A
0"B
1"D
#14
0"D
#15
0#
1&
b001 '
b00 *
b00000000000000000000000001010000 /
b00000000000000010000000001001000 0
b00000000000000000000000001000000 1
b00000000000000000000000111000000 3
b00000000000000000000000000111100 4
b00000000000000000000000111111100 5
b00000000000000000000000000010000 6
b00000000000000010000011110110111 7
b00000000000000000000001000000000 9
b00000000000000000000000000001100 ;
b00000000000000000000000000010000 <
b00000000000000010000011110110111 =
0>
b00000000000000000000000001000000 A
b01000 B
1E
b01 F
b10 M
b10 O
0Q
1S
b0010011 W
b00000 Z
b00000100000000010000010000010011 \
b00000000000000000000000000001000 ]
b00000000000000000000000001001000 ^
b00000100000000010000000000000000 _
b000 `
b00000000000000000000000000010000 c
b00000000000000000000000000001100 d
b0000000011 e
b00000000000000000000000111000000 f
b00000000000000000000000000001100 j
1k
b00000000000000000000000000111100 n
b11100 o
0q
b01000 s
b00010 t
1u
b0100 "=
b00010000 ">
b0000 "@
b000010 "A
b0111000000 "C
1"D
#16
0"D
#17
b110 '
b11 (
b01 *
b00000000000000000000000111000000 ,
b00000000000000000000100000011010 /
b00000000000000010000000000001100 0
b00000000000000000000000000000000 1
b00000000000000000000000001000000 4
b00000000000000000000001000000000 5
b00000000000000000000000000010100 6
b01100100000001111000011110010011 7
b00000000000000000000000111000000 9
b00000000000000000000000000010000 ;
b00000000000000000000000000010100 <
b01100100000001111000011110010011 =
b00000000000000010000000000000000 A
b01111 B
b10 F
b11 M
b11 O
0S
1V
b0110111 W
1X
b00010 [
b00000000000000010000011110110111 \
b00000000000000000000000000001100 ]
b00000000000000000000000000001111 ^
b00000000000000010000000000000000 _
b00000000000000000000000000010100 c
b00000000000000000000000000010000 d
b0000000100 e
b00000000000000000000000111111100 f
1h
b00000000000000000000000000010000 j
0k
b00000000000000000000000001000000 n
b01000 o
1q
b00000 s
b11100 t
0u
b00000000000000000000000111000000 x
1"<
b0111 "=
b000000 "A
b0111111100 "C
1"D
b00000000000000000000000111000000 "F
#18
0"D
#19
b001 '
b00 (
b00 *
b00000000000000000000000000000000 ,
b00000000000000000000000000000000 -
b00000000000000000000111001011110 /
b00000000000001111000011001010000 0
b00000000000000000000011001000000 1
b00000000000000000000001000000000 3
b00000000000000010000000000000000 4
b00000000000000010000001000000000 5
b00000000000000000000000000011000 6
b00000000000001111010010110000011 7
b00000000000000010000001000000000 8
b00000000000000010000100001000000 9
b00000000000000000000000000010100 ;
b00000000000000000000000000011000 <
b00000000000001111010010110000011 =
b00000000000000000000000000000000 @
b00000000000000000000011001000000 A
b00 F
b00000000000000010000001000000000 J
b01 M
b01 O
1S
0V
b0010011 W
0X
b01111 Y
b11100 [
b01100100000001111000011110010011 \
b00000000000000000000000000010000 ]
b00000000000000000000011001001111 ^
b01100100000001111000000000000000 _
1a
b00000000000000000000000000011000 c
b00000000000000000000000000010100 d
b0000000101 e
b00000000000000000000001000000000 f
0h
b00000000000000000000000000010100 j
b00000000000000010000000000000000 n
b01111 o
b01000 t
1u
b00000000000000000000000111111100 x
b00000000000000000000000111000000 |
b01111000 ">
b110010 "A
b1000000000 "C
1"D
b00000000000000000000000000000000 "F
#20
0"D
